{
  "swagger" : "2.0",
  "info" : {
    "title" : "BestCommerce",
    "version" : "1.0.0",
    "description" : "BestCommerce"
  },
  "paths" : {
    "/products" : {
      "get" : {
        "operationId" : "getProducts",
        "responses" : {
          "200" : {
            "description" : "The operation was successful.",
            "schema" : {
              "type" : "string"
            }
          }
        },
        "produces" : [ "application/json" ],
        "description" : "Retrieve products",
        "parameters" : [ {
          "name" : "pageNo",
          "in" : "query",
          "type" : "number"
        }, {
          "name" : "pageSize",
          "in" : "query",
          "type" : "number"
        }, {
          "name" : "merchantId",
          "in" : "query",
          "type" : "number"
        }, {
          "name" : "orderBy",
          "in" : "query",
          "type" : "string"
        }, {
          "name" : "fieldName",
          "in" : "query",
          "type" : "string"
        } ]
      }
    },
    "/discount" : {
      "post" : {
        "operationId" : "CreateDiscount",
        "responses" : {
          "200" : {
            "description" : "The operation was successful."
          }
        },
        "consumes" : [ "application/json" ],
        "produces" : [ "application/json" ],
        "description" : "Insert a discount",
        "parameters" : [ {
          "name" : "body",
          "in" : "body",
          "schema" : {
            "type" : "string"
          },
          "description" : "The request body for the operation",
          "required" : true
        } ]
      }
    }
  },
  "basePath" : "/bestcommerce/v1"
}